{
    "name": "Elder",
    "references": [
        "Entity",
        "WorldInterestPoint"
    ],
    "optionalUnityReferences": [],
    "includePlatforms": [],
    "excludePlatforms": [],
    "allowUnsafeCode": false
}