{
    "name": "WorldInterestPoint",
    "references": [
        "Entity"
    ],
    "optionalUnityReferences": [],
    "includePlatforms": [],
    "excludePlatforms": [],
    "allowUnsafeCode": false
}